…
Data is loaded and tidy, lets try to do some summary statistic to better
understand the data

``` r
cities |> 
  group_by(Country, City) |> 
  summarise(na = sum(is.na(Population))) |> 
  arrange(desc(na))
```

    ## `summarise()` has grouped output by 'Country'. You can override using the
    ## `.groups` argument.

    ## # A tibble: 55 x 3
    ## # Groups:   Country [28]
    ##    Country  City             na
    ##    <chr>    <chr>         <int>
    ##  1 Angola   Luanda           85
    ##  2 Italy    Milan            85
    ##  3 USA      San Francisco    85
    ##  4 Colombia Bogotá           80
    ##  5 India    Hyderabad        80
    ##  6 Spain    Madrid           80
    ##  7 UK       Birmingham       80
    ##  8 UK       Manchester       80
    ##  9 Italy    Rome             75
    ## 10 China    Shenyang         70
    ## # ... with 45 more rows

For some Cities there are a lot of missing values we need to do
something with them.

``` r
cities |> 
  filter(City == "San Francisco")  
```

    ## # A tibble: 86 x 4
    ##    Country City           Year Population
    ##    <chr>   <chr>         <int>      <int>
    ##  1 USA     San Francisco  1950    1855207
    ##  2 USA     San Francisco  1951         NA
    ##  3 USA     San Francisco  1952         NA
    ##  4 USA     San Francisco  1953         NA
    ##  5 USA     San Francisco  1954         NA
    ##  6 USA     San Francisco  1955         NA
    ##  7 USA     San Francisco  1956         NA
    ##  8 USA     San Francisco  1957         NA
    ##  9 USA     San Francisco  1958         NA
    ## 10 USA     San Francisco  1959         NA
    ## # ... with 76 more rows
…
``` r
cities |> 
  group_by(Country, City) |> 
  summarise(na = sum(is.na(Population))) |> 
  arrange(desc(na))
```

    ## `summarise()` has grouped output by 'Country'. You can override using the
    ## `.groups` argument.

    ## # A tibble: 55 x 3
    ## # Groups:   Country [28]
    ##    Country  City             na
    ##    <chr>    <chr>         <int>
    ##  1 Angola   Luanda           71
    ##  2 India    Hyderabad        71
    ##  3 Colombia Bogotá           70
    ##  4 Italy    Milan            70
    ##  5 USA      San Francisco    70
    ##  6 India    Madras           69
    ##  7 India    Bangalore        65
    ##  8 Pakistan Lahore           65
    ##  9 Spain    Madrid           65
    ## 10 UK       Birmingham       65
    ## # ... with 45 more rows
…
# The grow of population on each continent

To make this plot we would need to join the datasets

``` r
cities |> 
  distinct(Country, City) |> 
  arrange(Country)
```

    ## # A tibble: 55 x 2
    ##    Country    City          
    ##    <chr>      <chr>         
    ##  1 Angola     Luanda        
    ##  2 Argentina  Buenos Aires  
    ##  3 Bangladesh Dhaka         
    ##  4 Brazil     Rio de Janeiro
    ##  5 Brazil     São Paulo     
    ##  6 China      Shanghai      
    ##  7 China      Tianjin       
    ##  8 China      Shenyang      
    ##  9 China      Beijing       
    ## 10 China      Chongqing     
    ## # ... with 45 more rows
…
